{
    "core": {
        "dry_run": false,
        "rclone_binary_path": "/usr/bin/rclone",
        "rclone_config_path": "/home/user/.config/rclone/rclone.conf"
    },
    "hidden": {
        "/media/3TB/media/.unionfs-fuse": {
            "hidden_remotes": [
                "gcrypt"
            ]
        }
    },
    "notifications": {
    },
    "nzbget": {
        "enabled": false,
        "url": "https://user:password@nzbget.domain.com"
    },
    "plex": {
        "enabled": false,
        "max_streams_before_throttle": 1,
        "notifications": false,
        "poll_interval": 60,
        "rclone": {
            "throttle_speeds": {
                "1": "50M",
                "2": "40M",
                "3": "30M",
                "4": "20M",
                "5": "10M"
            },
            "url": "http://localhost:7949"
        },
        "token": "",
        "url": "https://plex.domain.com"
    },
    "remotes": {
        "gcrypt": {
            "hidden_remote": "/media/gcrypt/media",
            "rclone_command": "move",
            "rclone_excludes": [
                "**partial~",
                "**_HIDDEN~",
                ".unionfs/**",
                ".unionfs-fuse/**"
            ],
            "rclone_extras": {
                "--checkers": 16,
                "--drive-chunk-size": "64M",
                "--skip-links": null,
                "--stats": "60s",
                "--transfers": 4,
                "--user-agent": "Mozilla/5.0 (Macintosh; Intel Mac OS X 10_14_4) AppleWebKit/537.36 (KHTML, like Gecko) Chrome/74.0.3729.131 Safari/537.36",
                "--verbose": 1,
                "--bwlimit": "06:00,4700k 10:00,4700k 00:00,4700k 02:30,off",
                "--buffer-size": "512M",
                "--min-age": "1d"
            },
            "rclone_sleeps": {
                "Failed to copy: googleapi: Error 403: User rate limit exceeded": {
                    "count": 5,
                    "sleep": 25,
                    "timeout": 3600
                }
            },
            "remove_empty_dir_depth": 2,
            "sync_remote": "gcrypt:",
            "upload_folder": "/media/3TB/media",
            "upload_remote": "/media/gcrypt/media"
        }
    },
    "syncer": {},
    "uploader": {
        "gcrypt": {
            "check_interval": 30,
            "exclude_open_files": true,
            "max_size_gb": 2,
            "opened_excludes": [
                ""
            ],
            "schedule": {
                "allowed_from": "03:00",
                "allowed_until": "09:00",
                "enabled": false
            },
            "size_excludes": [
                ""
            ]
        }
    }
}
